{ 
  "LMA_API_URL": "https://adviser.lmsoftware.ru/dss/api/v1/", 
  "LMA_SERVICE_DOMAIN": "adviser.lmsoftware.ru",
  "LMA_SERVICE_PATH": "dss",
  "LMA_SSO_LOGIN_URL": "https://sso.adviser.lmsoftware.ru",
  "LMA_SSO_LOGOUT_URL": "https://sso.adviser.lmsoftware.ru/logout?rd=https%3A%2F%2Fadviser.lmsoftware.ru&rm=GET",
  "LMA_LDAP_PORTAL_CHANGE_PASSWORD_URL": "https://l.adviser.lmsoftware.ru/user",
  "LMA_HELP_URL": "https://adviser.lmsoftware.ru/articles",
  "LMA_WSS_URL": "wss://adviser.lmsoftware.ru/dss/ws/"
}