<?xml version="1.0" standalone="no"?>
<!DOCTYPE svg PUBLIC "-//W3C//DTD SVG 20010904//EN"
 "http://www.w3.org/TR/2001/REC-SVG-20010904/DTD/svg10.dtd">
<svg version="1.0" xmlns="http://www.w3.org/2000/svg"
 width="236.000000pt" height="273.000000pt" viewBox="0 0 236.000000 273.000000"
 preserveAspectRatio="xMidYMid meet">

<g transform="translate(0.000000,273.000000) scale(0.100000,-0.100000)"
fill="#2745A1" stroke="none">
<path d="M1231 2718 c-111 -19 -181 -135 -151 -249 14 -52 82 -124 125 -134
17 -4 36 -8 43 -11 9 -2 12 -45 12 -169 l0 -165 -33 0 c-52 0 -145 -28 -211
-63 -68 -36 -171 -133 -201 -190 -11 -20 -23 -37 -27 -37 -6 0 -173 90 -195
105 -2 1 7 26 18 56 44 115 10 261 -81 343 -65 58 -122 80 -210 80 -90 0 -163
-29 -224 -90 -130 -130 -117 -351 26 -464 123 -98 310 -89 412 19 17 17 34 31
40 31 5 0 53 -25 107 -55 l97 -55 -20 -62 c-38 -122 -23 -280 38 -400 l24 -47
-22 -15 c-68 -42 -322 -186 -329 -186 -5 0 -16 11 -24 24 -22 34 -74 56 -132
56 -158 0 -212 -196 -80 -294 45 -33 132 -29 180 7 47 35 59 58 66 127 l6 55
174 101 174 101 61 -61 c90 -90 232 -156 335 -156 l31 0 0 -150 c0 -142 -1
-150 -20 -150 -36 0 -126 -40 -166 -74 -22 -19 -53 -58 -69 -87 -27 -49 -30
-63 -30 -144 0 -81 3 -95 30 -144 77 -140 245 -196 392 -131 196 86 240 347
83 494 -50 46 -95 70 -155 82 l-35 6 0 149 0 149 28 0 c43 0 137 27 200 58 31
15 89 57 128 94 l71 68 194 -110 193 -109 2 -41 c1 -22 9 -52 18 -65 42 -64
138 -72 188 -16 36 40 43 73 29 122 -23 76 -128 106 -189 54 -17 -14 -33 -25
-38 -25 -9 0 -384 211 -384 216 0 3 11 27 25 54 56 111 68 244 35 375 -11 44
-17 82 -13 86 5 4 87 53 183 109 172 100 175 101 202 86 54 -32 138 -14 164
35 39 77 -2 165 -82 176 -82 11 -141 -49 -131 -133 l4 -43 -146 -84 c-80 -47
-162 -94 -182 -106 l-37 -22 -25 44 c-36 61 -142 157 -209 189 -62 31 -157 58
-200 58 l-28 0 0 165 c0 149 2 166 18 171 103 32 153 89 160 184 10 137 -99
233 -237 208z"/>
</g>
</svg>
